\relax 
\providecommand\hyper@newdestlabel[2]{}
\providecommand\BKM@entry[2]{}
\providecommand*{\memsetcounter}[2]{}
\providecommand\HyperFirstAtBeginDocument{\AtBeginDocument}
\HyperFirstAtBeginDocument{\ifx\hyper@anchor\@undefined
\global\let\oldcontentsline\contentsline
\gdef\contentsline#1#2#3#4{\oldcontentsline{#1}{#2}{#3}}
\global\let\oldnewlabel\newlabel
\gdef\newlabel#1#2{\newlabelxx{#1}#2}
\gdef\newlabelxx#1#2#3#4#5#6{\oldnewlabel{#1}{{#2}{#3}}}
\AtEndDocument{\ifx\hyper@anchor\@undefined
\let\contentsline\oldcontentsline
\let\newlabel\oldnewlabel
\fi}
\fi}
\global\let\hyper@last\relax 
\gdef\HyperFirstAtBeginDocument#1{#1}
\providecommand\HyField@AuxAddToFields[1]{}
\providecommand\HyField@AuxAddToCoFields[2]{}
\catcode `:\active 
\catcode `;\active 
\catcode `!\active 
\catcode `?\active 
\catcode `"\active 
\citation{abnt-url-package=url}
\@writefile{toc}{\changetocdepth  {4}}
\select@language{brazil}
\@writefile{toc}{\select@language{brazil}}
\@writefile{lof}{\select@language{brazil}}
\@writefile{lot}{\select@language{brazil}}
\providecommand*\caption@xref[2]{\@setref\relax\@undefined{#1}}
\newlabel{ppts3}{{\M@TitleReference {\caption@xref {ppts3}{ on input line 275}}{}}{1}{}{figure.caption.1}{}}
\BKM@entry{id=1,dest={6368617074657262322E30},srcline={283}}{4C69737461206465206162726576696174757261732065207369676C6173}
\@writefile{toc}{\setlength  {\cftchapterindent }{\cftlastnumwidth } \setlength  {\cftchapternumwidth }{2em}}
\@writefile{toc}{\setlength  {\cftchapterindent }{\cftlastnumwidth } \setlength  {\cftchapternumwidth }{2em}}
\@input{capitulos/ch1-introducao.aux}
\BKM@entry{id=2,dest={636861707465722E31},srcline={1}}{496E74726F64755C3334375C3334336F}
\@input{capitulos/ch2-objetivos.aux}
\BKM@entry{id=3,dest={636861707465722E32},srcline={1}}{4F626A657469766F7320646F2054726162616C686F}
\@input{capitulos/ch3-metodo.aux}
\BKM@entry{id=4,dest={636861707465722E33},srcline={1}}{4D5C333531746F646F2064652054726162616C686F}
\@input{capitulos/ch4-cronograma.aux}
\BKM@entry{id=5,dest={636861707465722E34},srcline={1}}{43726F6E6F6772616D61}
\bibdata{abntex2-options,bibliografia}
\BKM@entry{id=6,dest={73656374696F6E2A2E38},srcline={3}}{52656665725C3335326E63696173}
\bibcite{insta-eng-blog-ids}{Instagram Engineering}
\bibciteEXPL{insta-eng-blog-ids}{{Instagram Engineering}}
\bibciteIMPL{insta-eng-blog-ids}{{Instagram Engineering}}
\bibciteYEAR{insta-eng-blog-ids}{}
\bibcite{internetworldstats}{The Internet Big Picture}
\bibciteEXPL{internetworldstats}{The\ldots  }
\bibciteIMPL{internetworldstats}{THE\ldots  }
\bibciteYEAR{internetworldstats}{a}
\bibcite{zephoria-fb-mau}{The Top 20 Valuable Facebook Statistics \IeC {\textendash } Updated May 2019}
\bibciteEXPL{zephoria-fb-mau}{The\ldots  }
\bibciteIMPL{zephoria-fb-mau}{THE\ldots  }
\bibciteYEAR{zephoria-fb-mau}{b}
\@writefile{toc}{\vspace  {\cftbeforechapterskip }}
\@writefile{toc}{\setlength  {\cftchapterindent }{\cftlastnumwidth } \setlength  {\cftchapternumwidth }{2em}}
\@writefile{toc}{\contentsline {chapter}{\MakeTextUppercase  {Refer\^encias}}{7}{section*.8}}
\newlabel{LastPage}{{}{7}{}{page.7}{}}
\xdef\lastpage@lastpage{7}
\xdef\lastpage@lastpageHy{7}
\bibstyle{abntex2-alf}
\memsetcounter{lastsheet}{8}
\memsetcounter{lastpage}{7}
