\changetocdepth {4}
\select@language {brazil}
\setlength {\cftchapterindent }{\cftlastnumwidth } \setlength {\cftchapternumwidth }{2em}
\setlength {\cftchapterindent }{\cftlastnumwidth } \setlength {\cftchapternumwidth }{2em}
\setlength {\cftchapterindent }{0em} \setlength {\cftchapternumwidth }{\cftlastnumwidth }
\contentsline {chapter}{\chapternumberline {1}\MakeTextUppercase {Introdu\IeC {\c c}\IeC {\~a}o}}{3}{chapter.1}
\setlength {\cftchapterindent }{0em} \setlength {\cftchapternumwidth }{\cftlastnumwidth }
\contentsline {chapter}{\chapternumberline {2}\MakeTextUppercase {Objetivos do Trabalho}}{4}{chapter.2}
\setlength {\cftchapterindent }{0em} \setlength {\cftchapternumwidth }{\cftlastnumwidth }
\contentsline {chapter}{\chapternumberline {3}\MakeTextUppercase {M\IeC {\'e}todo de Trabalho}}{5}{chapter.3}
\setlength {\cftchapterindent }{0em} \setlength {\cftchapternumwidth }{\cftlastnumwidth }
\contentsline {chapter}{\chapternumberline {4}\MakeTextUppercase {Cronograma}}{6}{chapter.4}
\vspace {\cftbeforechapterskip }
\setlength {\cftchapterindent }{\cftlastnumwidth } \setlength {\cftchapternumwidth }{2em}
\contentsline {chapter}{\MakeTextUppercase {Refer\^encias}}{7}{section*.8}
