\relax 
\providecommand\hyper@newdestlabel[2]{}
\@writefile{toc}{\setlength  {\cftchapterindent }{0em} \setlength  {\cftchapternumwidth }{\cftlastnumwidth }}
\@writefile{toc}{\contentsline {chapter}{\chapternumberline {4}\MakeTextUppercase  {Cronograma}}{6}{chapter.4}}
\newlabel{cronograma}{{\M@TitleReference {4}{\MakeTextUppercase  {Cronograma}}}{6}{Cronograma}{chapter.4}{}}
\@writefile{lot}{\contentsline {table}{\numberline {1}{\ignorespaces Cronograma de Atividades\relax }}{6}{table.caption.4}}
\newlabel{tbl-cronograma01}{{\M@TitleReference {1}{Cronograma de Atividades\relax }}{6}{Cronograma de Atividades\relax }{table.caption.4}{}}
\@writefile{lot}{\contentsline {table}{\numberline {2}{\ignorespaces Cronograma de Atividades\relax }}{6}{table.caption.5}}
\newlabel{tbl-cronograma02}{{\M@TitleReference {2}{Cronograma de Atividades\relax }}{6}{Cronograma de Atividades\relax }{table.caption.5}{}}
\@setckpt{capitulos/ch4-cronograma}{
\setcounter{page}{7}
\setcounter{equation}{0}
\setcounter{enumi}{6}
\setcounter{enumii}{0}
\setcounter{enumiii}{0}
\setcounter{enumiv}{0}
\setcounter{footnote}{0}
\setcounter{mpfootnote}{0}
\setcounter{@memmarkcntra}{-1}
\setcounter{storedpagenumber}{1}
\setcounter{book}{0}
\setcounter{part}{0}
\setcounter{chapter}{4}
\setcounter{section}{0}
\setcounter{subsection}{0}
\setcounter{subsubsection}{0}
\setcounter{paragraph}{0}
\setcounter{subparagraph}{0}
\setcounter{@ppsavesec}{0}
\setcounter{@ppsaveapp}{0}
\setcounter{vslineno}{0}
\setcounter{poemline}{0}
\setcounter{modulo@vs}{0}
\setcounter{memfvsline}{0}
\setcounter{verse}{0}
\setcounter{chrsinstr}{0}
\setcounter{poem}{0}
\setcounter{newflo@tctr}{4}
\setcounter{@contsubnum}{0}
\setcounter{maxsecnumdepth}{4}
\setcounter{sidefootnote}{0}
\setcounter{pagenote}{0}
\setcounter{pagenoteshadow}{0}
\setcounter{memfbvline}{0}
\setcounter{bvlinectr}{0}
\setcounter{cp@cntr}{0}
\setcounter{ism@mctr}{0}
\setcounter{xsm@mctr}{0}
\setcounter{csm@mctr}{0}
\setcounter{ksm@mctr}{0}
\setcounter{xksm@mctr}{0}
\setcounter{cksm@mctr}{0}
\setcounter{msm@mctr}{0}
\setcounter{xmsm@mctr}{0}
\setcounter{cmsm@mctr}{0}
\setcounter{bsm@mctr}{0}
\setcounter{workm@mctr}{0}
\setcounter{sheetsequence}{8}
\setcounter{lastsheet}{8}
\setcounter{lastpage}{7}
\setcounter{figure}{0}
\setcounter{lofdepth}{1}
\setcounter{table}{2}
\setcounter{lotdepth}{1}
\setcounter{Item}{6}
\setcounter{Hfootnote}{3}
\setcounter{memhycontfloat}{0}
\setcounter{Hpagenote}{0}
\setcounter{bookmark@seq@number}{0}
\setcounter{abntex@bookmarkcounter}{2}
\setcounter{alineasi}{0}
\setcounter{alineasii}{0}
\setcounter{subalineasi}{0}
\setcounter{incisosi}{0}
\setcounter{AM@survey}{0}
\setcounter{ABCIaux}{0}
\setcounter{ABCImax}{0}
\setcounter{parentequation}{0}
\setcounter{r@tfl@t}{0}
\setcounter{FN@totalid}{3}
\setcounter{pp@a@FN@totalid}{3}
\setcounter{@todonotes@numberoftodonotes}{0}
\setcounter{lstnumber}{1}
\setcounter{ContinuedFloat}{0}
\setcounter{section@level}{0}
\setcounter{lstlisting}{0}
}
